This file contains sample commands for the set_fgfs_properties_through_telnet.py file.

[output, text]=system("python set_fgfs_properties_through_telnet.py 192.168.50.111 22224 2500 31.5196 74.406")

python set_fgfs_properties_through_telnet.py 192.168.50.111 22224 2500 31.5196 74.406

